<?xml version="1.0" encoding="UTF-8" standalone="no"?>
<svg
   xmlns:dc="http://purl.org/dc/elements/1.1/"
   xmlns:cc="http://creativecommons.org/ns#"
   xmlns:rdf="http://www.w3.org/1999/02/22-rdf-syntax-ns#"
   xmlns:svg="http://www.w3.org/2000/svg"
   xmlns="http://www.w3.org/2000/svg"
   xmlns:sodipodi="http://sodipodi.sourceforge.net/DTD/sodipodi-0.dtd"
   xmlns:inkscape="http://www.inkscape.org/namespaces/inkscape"
   width="281.42975mm"
   height="256.2865mm"
   viewBox="0 0 281.42975 256.2865"
   version="1.1"
   id="svg8"
   inkscape:version="1.0.2-2 (e86c870879, 2021-01-15)"
   sodipodi:docname="OR.svg">
  <defs
     id="defs2">
    <marker
       style="overflow:visible"
       id="marker10802"
       refX="0"
       refY="0"
       orient="auto"
       inkscape:stockid="Arrow1Lend"
       inkscape:isstock="true">
      <path
         transform="matrix(-0.8,0,0,-0.8,-10,0)"
         style="fill:#000000;fill-opacity:1;fill-rule:evenodd;stroke:#000000;stroke-width:1pt;stroke-opacity:1"
         d="M 0,0 5,-5 -12.5,0 5,5 Z"
         id="path10800" />
    </marker>
    <marker
       style="overflow:visible"
       id="marker10496"
       refX="0"
       refY="0"
       orient="auto"
       inkscape:stockid="Arrow1Lend"
       inkscape:isstock="true"
       inkscape:collect="always">
      <path
         transform="matrix(-0.8,0,0,-0.8,-10,0)"
         style="fill:#000000;fill-opacity:1;fill-rule:evenodd;stroke:#000000;stroke-width:1pt;stroke-opacity:1"
         d="M 0,0 5,-5 -12.5,0 5,5 Z"
         id="path10494" />
    </marker>
    <marker
       style="overflow:visible"
       id="marker10196"
       refX="0"
       refY="0"
       orient="auto"
       inkscape:stockid="Arrow1Lend"
       inkscape:isstock="true"
       inkscape:collect="always">
      <path
         transform="matrix(-0.8,0,0,-0.8,-10,0)"
         style="fill:#000000;fill-opacity:1;fill-rule:evenodd;stroke:#000000;stroke-width:1pt;stroke-opacity:1"
         d="M 0,0 5,-5 -12.5,0 5,5 Z"
         id="path10194" />
    </marker>
    <marker
       style="overflow:visible"
       id="marker9902"
       refX="0"
       refY="0"
       orient="auto"
       inkscape:stockid="Arrow1Lend"
       inkscape:isstock="true"
       inkscape:collect="always">
      <path
         transform="matrix(-0.8,0,0,-0.8,-10,0)"
         style="fill:#000000;fill-opacity:1;fill-rule:evenodd;stroke:#000000;stroke-width:1pt;stroke-opacity:1"
         d="M 0,0 5,-5 -12.5,0 5,5 Z"
         id="path9900" />
    </marker>
    <marker
       style="overflow:visible"
       id="marker9614"
       refX="0"
       refY="0"
       orient="auto"
       inkscape:stockid="Arrow1Lend"
       inkscape:isstock="true"
       inkscape:collect="always">
      <path
         transform="matrix(-0.8,0,0,-0.8,-10,0)"
         style="fill:#000000;fill-opacity:1;fill-rule:evenodd;stroke:#000000;stroke-width:1pt;stroke-opacity:1"
         d="M 0,0 5,-5 -12.5,0 5,5 Z"
         id="path9612" />
    </marker>
    <marker
       style="overflow:visible"
       id="marker6832"
       refX="0"
       refY="0"
       orient="auto"
       inkscape:stockid="Arrow1Lend"
       inkscape:isstock="true"
       inkscape:collect="always">
      <path
         transform="matrix(-0.8,0,0,-0.8,-10,0)"
         style="fill:#000000;fill-opacity:1;fill-rule:evenodd;stroke:#000000;stroke-width:1pt;stroke-opacity:1"
         d="M 0,0 5,-5 -12.5,0 5,5 Z"
         id="path6830" />
    </marker>
    <marker
       style="overflow:visible"
       id="marker5785"
       refX="0"
       refY="0"
       orient="auto"
       inkscape:stockid="Arrow1Lend"
       inkscape:isstock="true"
       inkscape:collect="always">
      <path
         transform="matrix(-0.8,0,0,-0.8,-10,0)"
         style="fill:#000000;fill-opacity:1;fill-rule:evenodd;stroke:#000000;stroke-width:1pt;stroke-opacity:1"
         d="M 0,0 5,-5 -12.5,0 5,5 Z"
         id="path5783" />
    </marker>
    <marker
       style="overflow:visible"
       id="marker5545"
       refX="0"
       refY="0"
       orient="auto"
       inkscape:stockid="Arrow1Lend"
       inkscape:isstock="true"
       inkscape:collect="always">
      <path
         transform="matrix(-0.8,0,0,-0.8,-10,0)"
         style="fill:#000000;fill-opacity:1;fill-rule:evenodd;stroke:#000000;stroke-width:1pt;stroke-opacity:1"
         d="M 0,0 5,-5 -12.5,0 5,5 Z"
         id="path5543" />
    </marker>
    <marker
       style="overflow:visible"
       id="marker5311"
       refX="0"
       refY="0"
       orient="auto"
       inkscape:stockid="Arrow1Lend"
       inkscape:isstock="true"
       inkscape:collect="always">
      <path
         transform="matrix(-0.8,0,0,-0.8,-10,0)"
         style="fill:#000000;fill-opacity:1;fill-rule:evenodd;stroke:#000000;stroke-width:1pt;stroke-opacity:1"
         d="M 0,0 5,-5 -12.5,0 5,5 Z"
         id="path5309" />
    </marker>
    <marker
       style="overflow:visible"
       id="marker5083"
       refX="0"
       refY="0"
       orient="auto"
       inkscape:stockid="Arrow1Lend"
       inkscape:isstock="true"
       inkscape:collect="always">
      <path
         transform="matrix(-0.8,0,0,-0.8,-10,0)"
         style="fill:#000000;fill-opacity:1;fill-rule:evenodd;stroke:#000000;stroke-width:1pt;stroke-opacity:1"
         d="M 0,0 5,-5 -12.5,0 5,5 Z"
         id="path5081" />
    </marker>
    <marker
       style="overflow:visible"
       id="Arrow1Lend"
       refX="0"
       refY="0"
       orient="auto"
       inkscape:stockid="Arrow1Lend"
       inkscape:isstock="true"
       inkscape:collect="always">
      <path
         transform="matrix(-0.8,0,0,-0.8,-10,0)"
         style="fill:#000000;fill-opacity:1;fill-rule:evenodd;stroke:#000000;stroke-width:1pt;stroke-opacity:1"
         d="M 0,0 5,-5 -12.5,0 5,5 Z"
         id="path864" />
    </marker>
    <marker
       style="overflow:visible"
       id="Arrow1Lend-8"
       refX="0"
       refY="0"
       orient="auto"
       inkscape:stockid="Arrow1Lend"
       inkscape:isstock="true">
      <path
         transform="matrix(-0.8,0,0,-0.8,-10,0)"
         style="fill:#000000;fill-opacity:1;fill-rule:evenodd;stroke:#000000;stroke-width:1pt;stroke-opacity:1"
         d="M 0,0 5,-5 -12.5,0 5,5 Z"
         id="path864-3" />
    </marker>
    <marker
       style="overflow:visible"
       id="Arrow1Lend-8-0"
       refX="0"
       refY="0"
       orient="auto"
       inkscape:stockid="Arrow1Lend"
       inkscape:isstock="true">
      <path
         transform="matrix(-0.8,0,0,-0.8,-10,0)"
         style="fill:#000000;fill-opacity:1;fill-rule:evenodd;stroke:#000000;stroke-width:1pt;stroke-opacity:1"
         d="M 0,0 5,-5 -12.5,0 5,5 Z"
         id="path864-3-8" />
    </marker>
    <marker
       style="overflow:visible"
       id="Arrow1Lend-8-0-5"
       refX="0"
       refY="0"
       orient="auto"
       inkscape:stockid="Arrow1Lend"
       inkscape:isstock="true">
      <path
         transform="matrix(-0.8,0,0,-0.8,-10,0)"
         style="fill:#000000;fill-opacity:1;fill-rule:evenodd;stroke:#000000;stroke-width:1pt;stroke-opacity:1"
         d="M 0,0 5,-5 -12.5,0 5,5 Z"
         id="path864-3-8-1" />
    </marker>
    <marker
       style="overflow:visible"
       id="marker1623"
       refX="0"
       refY="0"
       orient="auto"
       inkscape:stockid="Arrow1Lend"
       inkscape:isstock="true">
      <path
         transform="matrix(-0.8,0,0,-0.8,-10,0)"
         style="fill:#000000;fill-opacity:1;fill-rule:evenodd;stroke:#000000;stroke-width:1pt;stroke-opacity:1"
         d="M 0,0 5,-5 -12.5,0 5,5 Z"
         id="path1621" />
    </marker>
    <marker
       style="overflow:visible"
       id="Arrow1Lend-6"
       refX="0"
       refY="0"
       orient="auto"
       inkscape:stockid="Arrow1Lend"
       inkscape:isstock="true"
       inkscape:collect="always">
      <path
         transform="matrix(-0.8,0,0,-0.8,-10,0)"
         style="fill:#000000;fill-opacity:1;fill-rule:evenodd;stroke:#000000;stroke-width:1pt;stroke-opacity:1"
         d="M 0,0 5,-5 -12.5,0 5,5 Z"
         id="path864-9" />
    </marker>
    <marker
       style="overflow:visible"
       id="Arrow1Lend-8-8"
       refX="0"
       refY="0"
       orient="auto"
       inkscape:stockid="Arrow1Lend"
       inkscape:isstock="true">
      <path
         transform="matrix(-0.8,0,0,-0.8,-10,0)"
         style="fill:#000000;fill-opacity:1;fill-rule:evenodd;stroke:#000000;stroke-width:1pt;stroke-opacity:1"
         d="M 0,0 5,-5 -12.5,0 5,5 Z"
         id="path864-3-2" />
    </marker>
    <marker
       style="overflow:visible"
       id="Arrow1Lend-8-0-1"
       refX="0"
       refY="0"
       orient="auto"
       inkscape:stockid="Arrow1Lend"
       inkscape:isstock="true">
      <path
         transform="matrix(-0.8,0,0,-0.8,-10,0)"
         style="fill:#000000;fill-opacity:1;fill-rule:evenodd;stroke:#000000;stroke-width:1pt;stroke-opacity:1"
         d="M 0,0 5,-5 -12.5,0 5,5 Z"
         id="path864-3-8-4" />
    </marker>
    <marker
       style="overflow:visible"
       id="Arrow1Lend-8-0-5-0"
       refX="0"
       refY="0"
       orient="auto"
       inkscape:stockid="Arrow1Lend"
       inkscape:isstock="true">
      <path
         transform="matrix(-0.8,0,0,-0.8,-10,0)"
         style="fill:#000000;fill-opacity:1;fill-rule:evenodd;stroke:#000000;stroke-width:1pt;stroke-opacity:1"
         d="M 0,0 5,-5 -12.5,0 5,5 Z"
         id="path864-3-8-1-0" />
    </marker>
    <marker
       style="overflow:visible"
       id="marker2340"
       refX="0"
       refY="0"
       orient="auto"
       inkscape:stockid="Arrow1Lend"
       inkscape:isstock="true">
      <path
         transform="matrix(-0.8,0,0,-0.8,-10,0)"
         style="fill:#000000;fill-opacity:1;fill-rule:evenodd;stroke:#000000;stroke-width:1pt;stroke-opacity:1"
         d="M 0,0 5,-5 -12.5,0 5,5 Z"
         id="path2338" />
    </marker>
    <marker
       style="overflow:visible"
       id="marker3235"
       refX="0"
       refY="0"
       orient="auto"
       inkscape:stockid="Arrow1Lend"
       inkscape:isstock="true">
      <path
         transform="matrix(-0.8,0,0,-0.8,-10,0)"
         style="fill:#000000;fill-opacity:1;fill-rule:evenodd;stroke:#000000;stroke-width:1pt;stroke-opacity:1"
         d="M 0,0 5,-5 -12.5,0 5,5 Z"
         id="path3233" />
    </marker>
    <marker
       style="overflow:visible"
       id="marker3235-1"
       refX="0"
       refY="0"
       orient="auto"
       inkscape:stockid="Arrow1Lend"
       inkscape:isstock="true">
      <path
         transform="matrix(-0.8,0,0,-0.8,-10,0)"
         style="fill:#000000;fill-opacity:1;fill-rule:evenodd;stroke:#000000;stroke-width:1pt;stroke-opacity:1"
         d="M 0,0 5,-5 -12.5,0 5,5 Z"
         id="path3233-3" />
    </marker>
    <marker
       style="overflow:visible"
       id="marker1052-1"
       refX="0"
       refY="0"
       orient="auto"
       inkscape:stockid="Arrow1Lend"
       inkscape:isstock="true">
      <path
         transform="matrix(-0.8,0,0,-0.8,-10,0)"
         style="fill:#000000;fill-opacity:1;fill-rule:evenodd;stroke:#000000;stroke-width:1pt;stroke-opacity:1"
         d="M 0,0 5,-5 -12.5,0 5,5 Z"
         id="path1050-5" />
    </marker>
    <marker
       style="overflow:visible"
       id="marker1181"
       refX="0"
       refY="0"
       orient="auto"
       inkscape:stockid="Arrow1Lend"
       inkscape:isstock="true">
      <path
         transform="matrix(-0.8,0,0,-0.8,-10,0)"
         style="fill:#000000;fill-opacity:1;fill-rule:evenodd;stroke:#000000;stroke-width:1pt;stroke-opacity:1"
         d="M 0,0 5,-5 -12.5,0 5,5 Z"
         id="path1179" />
    </marker>
    <marker
       style="overflow:visible"
       id="marker3235-3"
       refX="0"
       refY="0"
       orient="auto"
       inkscape:stockid="Arrow1Lend"
       inkscape:isstock="true"
       inkscape:collect="always">
      <path
         transform="matrix(-0.8,0,0,-0.8,-10,0)"
         style="fill:#000000;fill-opacity:1;fill-rule:evenodd;stroke:#000000;stroke-width:1pt;stroke-opacity:1"
         d="M 0,0 5,-5 -12.5,0 5,5 Z"
         id="path3233-0" />
    </marker>
    <marker
       style="overflow:visible"
       id="Arrow1Lend-1"
       refX="0"
       refY="0"
       orient="auto"
       inkscape:stockid="Arrow1Lend"
       inkscape:isstock="true"
       inkscape:collect="always">
      <path
         transform="matrix(-0.8,0,0,-0.8,-10,0)"
         style="fill:#000000;fill-opacity:1;fill-rule:evenodd;stroke:#000000;stroke-width:1pt;stroke-opacity:1"
         d="M 0,0 5,-5 -12.5,0 5,5 Z"
         id="path864-1" />
    </marker>
    <marker
       style="overflow:visible"
       id="Arrow1Lend-8-88"
       refX="0"
       refY="0"
       orient="auto"
       inkscape:stockid="Arrow1Lend"
       inkscape:isstock="true">
      <path
         transform="matrix(-0.8,0,0,-0.8,-10,0)"
         style="fill:#000000;fill-opacity:1;fill-rule:evenodd;stroke:#000000;stroke-width:1pt;stroke-opacity:1"
         d="M 0,0 5,-5 -12.5,0 5,5 Z"
         id="path864-3-24" />
    </marker>
    <marker
       style="overflow:visible"
       id="Arrow1Lend-8-0-9"
       refX="0"
       refY="0"
       orient="auto"
       inkscape:stockid="Arrow1Lend"
       inkscape:isstock="true">
      <path
         transform="matrix(-0.8,0,0,-0.8,-10,0)"
         style="fill:#000000;fill-opacity:1;fill-rule:evenodd;stroke:#000000;stroke-width:1pt;stroke-opacity:1"
         d="M 0,0 5,-5 -12.5,0 5,5 Z"
         id="path864-3-8-6" />
    </marker>
    <marker
       style="overflow:visible"
       id="Arrow1Lend-8-0-5-8"
       refX="0"
       refY="0"
       orient="auto"
       inkscape:stockid="Arrow1Lend"
       inkscape:isstock="true">
      <path
         transform="matrix(-0.8,0,0,-0.8,-10,0)"
         style="fill:#000000;fill-opacity:1;fill-rule:evenodd;stroke:#000000;stroke-width:1pt;stroke-opacity:1"
         d="M 0,0 5,-5 -12.5,0 5,5 Z"
         id="path864-3-8-1-5" />
    </marker>
    <marker
       style="overflow:visible"
       id="marker2340-2"
       refX="0"
       refY="0"
       orient="auto"
       inkscape:stockid="Arrow1Lend"
       inkscape:isstock="true">
      <path
         transform="matrix(-0.8,0,0,-0.8,-10,0)"
         style="fill:#000000;fill-opacity:1;fill-rule:evenodd;stroke:#000000;stroke-width:1pt;stroke-opacity:1"
         d="M 0,0 5,-5 -12.5,0 5,5 Z"
         id="path2338-2" />
    </marker>
    <marker
       style="overflow:visible"
       id="marker1052-9"
       refX="0"
       refY="0"
       orient="auto"
       inkscape:stockid="Arrow1Lend"
       inkscape:isstock="true">
      <path
         transform="matrix(-0.8,0,0,-0.8,-10,0)"
         style="fill:#000000;fill-opacity:1;fill-rule:evenodd;stroke:#000000;stroke-width:1pt;stroke-opacity:1"
         d="M 0,0 5,-5 -12.5,0 5,5 Z"
         id="path1050-7" />
    </marker>
    <marker
       style="overflow:visible"
       id="Arrow1Lend-81"
       refX="0"
       refY="0"
       orient="auto"
       inkscape:stockid="Arrow1Lend"
       inkscape:isstock="true">
      <path
         transform="matrix(-0.8,0,0,-0.8,-10,0)"
         style="fill:#000000;fill-opacity:1;fill-rule:evenodd;stroke:#000000;stroke-width:1pt;stroke-opacity:1"
         d="M 0,0 5,-5 -12.5,0 5,5 Z"
         id="path864-30" />
    </marker>
    <marker
       style="overflow:visible"
       id="Arrow2Lstart"
       refX="0"
       refY="0"
       orient="auto"
       inkscape:stockid="Arrow2Lstart"
       inkscape:isstock="true">
      <path
         transform="matrix(1.1,0,0,1.1,1.1,0)"
         d="M 8.7185878,4.0337352 -2.2072895,0.01601326 8.7185884,-4.0017078 c -1.7454984,2.3720609 -1.7354408,5.6174519 -6e-7,8.035443 z"
         style="fill:#000000;fill-opacity:1;fill-rule:evenodd;stroke:#000000;stroke-width:0.625;stroke-linejoin:round;stroke-opacity:1"
         id="path879" />
    </marker>
    <marker
       style="overflow:visible"
       id="marker2907"
       refX="0"
       refY="0"
       orient="auto"
       inkscape:stockid="Arrow1Lend"
       inkscape:isstock="true">
      <path
         transform="matrix(-0.8,0,0,-0.8,-10,0)"
         style="fill:#000000;fill-opacity:1;fill-rule:evenodd;stroke:#000000;stroke-width:1pt;stroke-opacity:1"
         d="M 0,0 5,-5 -12.5,0 5,5 Z"
         id="path2905" />
    </marker>
    <marker
       style="overflow:visible"
       id="Arrow1Lend-8-7"
       refX="0"
       refY="0"
       orient="auto"
       inkscape:stockid="Arrow1Lend"
       inkscape:isstock="true">
      <path
         transform="matrix(-0.8,0,0,-0.8,-10,0)"
         style="fill:#000000;fill-opacity:1;fill-rule:evenodd;stroke:#000000;stroke-width:1pt;stroke-opacity:1"
         d="M 0,0 5,-5 -12.5,0 5,5 Z"
         id="path864-3-7" />
    </marker>
    <marker
       style="overflow:visible"
       id="Arrow1Lend-8-0-10"
       refX="0"
       refY="0"
       orient="auto"
       inkscape:stockid="Arrow1Lend"
       inkscape:isstock="true">
      <path
         transform="matrix(-0.8,0,0,-0.8,-10,0)"
         style="fill:#000000;fill-opacity:1;fill-rule:evenodd;stroke:#000000;stroke-width:1pt;stroke-opacity:1"
         d="M 0,0 5,-5 -12.5,0 5,5 Z"
         id="path864-3-8-3" />
    </marker>
    <marker
       style="overflow:visible"
       id="Arrow1Lend-8-0-5-9"
       refX="0"
       refY="0"
       orient="auto"
       inkscape:stockid="Arrow1Lend"
       inkscape:isstock="true">
      <path
         transform="matrix(-0.8,0,0,-0.8,-10,0)"
         style="fill:#000000;fill-opacity:1;fill-rule:evenodd;stroke:#000000;stroke-width:1pt;stroke-opacity:1"
         d="M 0,0 5,-5 -12.5,0 5,5 Z"
         id="path864-3-8-1-6" />
    </marker>
    <marker
       style="overflow:visible"
       id="marker2340-3"
       refX="0"
       refY="0"
       orient="auto"
       inkscape:stockid="Arrow1Lend"
       inkscape:isstock="true">
      <path
         transform="matrix(-0.8,0,0,-0.8,-10,0)"
         style="fill:#000000;fill-opacity:1;fill-rule:evenodd;stroke:#000000;stroke-width:1pt;stroke-opacity:1"
         d="M 0,0 5,-5 -12.5,0 5,5 Z"
         id="path2338-5" />
    </marker>
    <marker
       style="overflow:visible"
       id="marker3235-7"
       refX="0"
       refY="0"
       orient="auto"
       inkscape:stockid="Arrow1Lend"
       inkscape:isstock="true">
      <path
         transform="matrix(-0.8,0,0,-0.8,-10,0)"
         style="fill:#000000;fill-opacity:1;fill-rule:evenodd;stroke:#000000;stroke-width:1pt;stroke-opacity:1"
         d="M 0,0 5,-5 -12.5,0 5,5 Z"
         id="path3233-4" />
    </marker>
    <marker
       style="overflow:visible"
       id="marker3235-1-4"
       refX="0"
       refY="0"
       orient="auto"
       inkscape:stockid="Arrow1Lend"
       inkscape:isstock="true">
      <path
         transform="matrix(-0.8,0,0,-0.8,-10,0)"
         style="fill:#000000;fill-opacity:1;fill-rule:evenodd;stroke:#000000;stroke-width:1pt;stroke-opacity:1"
         d="M 0,0 5,-5 -12.5,0 5,5 Z"
         id="path3233-3-0" />
    </marker>
    <marker
       style="overflow:visible"
       id="marker1052-6"
       refX="0"
       refY="0"
       orient="auto"
       inkscape:stockid="Arrow1Lend"
       inkscape:isstock="true">
      <path
         transform="matrix(-0.8,0,0,-0.8,-10,0)"
         style="fill:#000000;fill-opacity:1;fill-rule:evenodd;stroke:#000000;stroke-width:1pt;stroke-opacity:1"
         d="M 0,0 5,-5 -12.5,0 5,5 Z"
         id="path1050-6" />
    </marker>
    <marker
       style="overflow:visible"
       id="Arrow1Lend-7"
       refX="0"
       refY="0"
       orient="auto"
       inkscape:stockid="Arrow1Lend"
       inkscape:isstock="true">
      <path
         transform="matrix(-0.8,0,0,-0.8,-10,0)"
         style="fill:#000000;fill-opacity:1;fill-rule:evenodd;stroke:#000000;stroke-width:1pt;stroke-opacity:1"
         d="M 0,0 5,-5 -12.5,0 5,5 Z"
         id="path864-7" />
    </marker>
    <marker
       style="overflow:visible"
       id="Arrow2Lstart-1"
       refX="0"
       refY="0"
       orient="auto"
       inkscape:stockid="Arrow2Lstart"
       inkscape:isstock="true">
      <path
         transform="matrix(1.1,0,0,1.1,1.1,0)"
         d="M 8.7185878,4.0337352 -2.2072895,0.01601326 8.7185884,-4.0017078 c -1.7454984,2.3720609 -1.7354408,5.6174519 -6e-7,8.035443 z"
         style="fill:#000000;fill-opacity:1;fill-rule:evenodd;stroke:#000000;stroke-width:0.625;stroke-linejoin:round;stroke-opacity:1"
         id="path879-7" />
    </marker>
    <marker
       style="overflow:visible"
       id="Arrow1Lend-9"
       refX="0"
       refY="0"
       orient="auto"
       inkscape:stockid="Arrow1Lend"
       inkscape:isstock="true"
       inkscape:collect="always">
      <path
         transform="matrix(-0.8,0,0,-0.8,-10,0)"
         style="fill:#000000;fill-opacity:1;fill-rule:evenodd;stroke:#000000;stroke-width:1pt;stroke-opacity:1"
         d="M 0,0 5,-5 -12.5,0 5,5 Z"
         id="path864-8" />
    </marker>
    <marker
       style="overflow:visible"
       id="marker2907-1"
       refX="0"
       refY="0"
       orient="auto"
       inkscape:stockid="Arrow1Lend"
       inkscape:isstock="true">
      <path
         transform="matrix(-0.8,0,0,-0.8,-10,0)"
         style="fill:#000000;fill-opacity:1;fill-rule:evenodd;stroke:#000000;stroke-width:1pt;stroke-opacity:1"
         d="M 0,0 5,-5 -12.5,0 5,5 Z"
         id="path2905-9" />
    </marker>
    <marker
       style="overflow:visible"
       id="marker2907-1-2"
       refX="0"
       refY="0"
       orient="auto"
       inkscape:stockid="Arrow1Lend"
       inkscape:isstock="true">
      <path
         transform="matrix(-0.8,0,0,-0.8,-10,0)"
         style="fill:#000000;fill-opacity:1;fill-rule:evenodd;stroke:#000000;stroke-width:1pt;stroke-opacity:1"
         d="M 0,0 5,-5 -12.5,0 5,5 Z"
         id="path2905-9-4" />
    </marker>
    <marker
       style="overflow:visible"
       id="marker2907-1-0"
       refX="0"
       refY="0"
       orient="auto"
       inkscape:stockid="Arrow1Lend"
       inkscape:isstock="true">
      <path
         transform="matrix(-0.8,0,0,-0.8,-10,0)"
         style="fill:#000000;fill-opacity:1;fill-rule:evenodd;stroke:#000000;stroke-width:1pt;stroke-opacity:1"
         d="M 0,0 5,-5 -12.5,0 5,5 Z"
         id="path2905-9-2" />
    </marker>
    <marker
       style="overflow:visible"
       id="marker2907-1-5"
       refX="0"
       refY="0"
       orient="auto"
       inkscape:stockid="Arrow1Lend"
       inkscape:isstock="true">
      <path
         transform="matrix(-0.8,0,0,-0.8,-10,0)"
         style="fill:#000000;fill-opacity:1;fill-rule:evenodd;stroke:#000000;stroke-width:1pt;stroke-opacity:1"
         d="M 0,0 5,-5 -12.5,0 5,5 Z"
         id="path2905-9-1" />
    </marker>
  </defs>
  <sodipodi:namedview
     id="base"
     pagecolor="#ffffff"
     bordercolor="#666666"
     borderopacity="1.0"
     inkscape:pageopacity="0.0"
     inkscape:pageshadow="2"
     inkscape:zoom="0.7"
     inkscape:cx="702.45954"
     inkscape:cy="443.72917"
     inkscape:document-units="mm"
     inkscape:current-layer="layer1-8"
     inkscape:document-rotation="0"
     showgrid="false"
     inkscape:window-width="1920"
     inkscape:window-height="1017"
     inkscape:window-x="1912"
     inkscape:window-y="-8"
     inkscape:window-maximized="1"
     fit-margin-left="2"
     fit-margin-top="2"
     fit-margin-right="2"
     fit-margin-bottom="2" />
  <metadata
     id="metadata5">
    <rdf:RDF>
      <cc:Work
         rdf:about="">
        <dc:format>image/svg+xml</dc:format>
        <dc:type
           rdf:resource="http://purl.org/dc/dcmitype/StillImage" />
        <dc:title></dc:title>
      </cc:Work>
    </rdf:RDF>
  </metadata>
  <g
     inkscape:label="Layer 1"
     inkscape:groupmode="layer"
     id="layer1"
     transform="translate(42.894223,-1.5232185)">
    <g
       inkscape:label="Layer 1"
       id="layer1-4"
       transform="translate(48.660334,10.686703)">
      <circle
         style="fill:#ffffff;fill-rule:evenodd;stroke:#000000;stroke-width:0.368905;stroke-miterlimit:4;stroke-dasharray:none;stroke-opacity:1"
         id="path1219-6-7"
         sodipodi:type="arc"
         sodipodi:cx="28.221529"
         sodipodi:cy="41.743839"
         sodipodi:rx="7.0338039"
         sodipodi:ry="6.7331791"
         sodipodi:start="6.2770896"
         sodipodi:end="6.2730296"
         sodipodi:arc-type="arc"
         sodipodi:open="true"
         d="m 35.255202,41.702796 a 7.0338039,6.7331791 0 0 1 -6.983658,6.774052 7.0338039,6.7331791 0 0 1 -7.083587,-6.678297 7.0338039,6.7331791 0 0 1 6.969279,-6.78761 7.0338039,6.7331791 0 0 1 7.097734,6.664519" />
      <path
         style="fill:none;stroke:#000000;stroke-width:0.179419px;stroke-linecap:butt;stroke-linejoin:miter;stroke-opacity:1;marker-end:url(#Arrow1Lend)"
         d="m 35.2552,41.702789 22.931669,-0.02852"
         id="path1822" />
      <text
         xml:space="preserve"
         style="font-style:normal;font-weight:normal;font-size:7.17675px;line-height:1.25;font-family:sans-serif;fill:#000000;fill-opacity:1;stroke:none;stroke-width:0.179419"
         x="36.226715"
         y="28.262663"
         id="text1846"
         transform="scale(1.0009604,0.99904053)"><tspan
           sodipodi:role="line"
           id="tspan1844"
           x="36.226715"
           y="28.262663"
           style="stroke-width:0.179419">[1-9]</tspan></text>
      <text
         xml:space="preserve"
         style="font-style:normal;font-weight:normal;font-size:7.17675px;line-height:1.25;font-family:sans-serif;fill:#000000;fill-opacity:1;stroke:none;stroke-width:0.179419"
         x="56.290894"
         y="71.880844"
         id="text1846-9"
         transform="scale(1.0009604,0.99904053)"><tspan
           sodipodi:role="line"
           id="tspan1844-1"
           x="56.290894"
           y="71.880844"
           style="stroke-width:0.179419">[0-9]</tspan></text>
      <circle
         style="fill:#ffffff;fill-rule:evenodd;stroke:#000000;stroke-width:0.368905;stroke-miterlimit:4;stroke-dasharray:none;stroke-opacity:1"
         id="path1219-6-5-8-8"
         sodipodi:type="arc"
         sodipodi:cx="66.158676"
         sodipodi:cy="41.743637"
         sodipodi:rx="7.0338039"
         sodipodi:ry="6.7331791"
         sodipodi:start="6.2770896"
         sodipodi:end="6.2730296"
         sodipodi:arc-type="arc"
         sodipodi:open="true"
         d="m 73.192349,41.702594 a 7.0338039,6.7331791 0 0 1 -6.983658,6.774052 7.0338039,6.7331791 0 0 1 -7.083587,-6.678298 7.0338039,6.7331791 0 0 1 6.969279,-6.787609 7.0338039,6.7331791 0 0 1 7.097734,6.664519" />
      <circle
         style="fill:#ffffff;fill-rule:evenodd;stroke:#000000;stroke-width:0.368905;stroke-miterlimit:4;stroke-dasharray:none;stroke-opacity:1"
         id="path1219-6-7-4"
         sodipodi:type="arc"
         sodipodi:cx="27.999069"
         sodipodi:cy="5.9443512"
         sodipodi:rx="7.0338039"
         sodipodi:ry="6.7331791"
         sodipodi:start="6.2770896"
         sodipodi:end="6.2730296"
         sodipodi:arc-type="arc"
         sodipodi:open="true"
         d="M 35.032742,5.903308 A 7.0338039,6.7331791 0 0 1 28.049084,12.67736 7.0338039,6.7331791 0 0 1 20.965497,5.9990624 7.0338039,6.7331791 0 0 1 27.934776,-0.78854661 7.0338039,6.7331791 0 0 1 35.03251,5.8759722" />
      <path
         style="fill:none;stroke:#000000;stroke-width:0.179419px;stroke-linecap:butt;stroke-linejoin:miter;stroke-opacity:1;marker-end:url(#Arrow1Lend-9)"
         d="M 35.032741,5.903301 57.96441,5.874781"
         id="path1822-6" />
      <circle
         style="fill:#ffffff;fill-rule:evenodd;stroke:#000000;stroke-width:0.368905;stroke-miterlimit:4;stroke-dasharray:none;stroke-opacity:1"
         id="path1219-6-5-8-8-4"
         sodipodi:type="arc"
         sodipodi:cx="65.936218"
         sodipodi:cy="5.944149"
         sodipodi:rx="7.0338039"
         sodipodi:ry="6.7331791"
         sodipodi:start="6.2770896"
         sodipodi:end="6.2730296"
         sodipodi:arc-type="arc"
         sodipodi:open="true"
         d="M 72.969892,5.9031058 A 7.0338039,6.7331791 0 0 1 65.986233,12.677158 7.0338039,6.7331791 0 0 1 58.902647,5.9988603 7.0338039,6.7331791 0 0 1 65.871925,-0.78874879 7.0338039,6.7331791 0 0 1 72.969659,5.87577" />
      <text
         xml:space="preserve"
         style="font-style:normal;font-weight:normal;font-size:7.17675px;line-height:1.25;font-family:sans-serif;fill:#000000;fill-opacity:1;stroke:none;stroke-width:0.179419"
         x="43.135757"
         y="-1.8473743"
         id="text1846-7"
         transform="scale(1.0009604,0.99904053)"><tspan
           sodipodi:role="line"
           id="tspan1844-9"
           x="43.135757"
           y="-1.8473743"
           style="stroke-width:0.179419">0</tspan></text>
      <path
         style="fill:none;stroke:#000000;stroke-width:0.264583px;stroke-linecap:butt;stroke-linejoin:miter;stroke-opacity:1;marker-end:url(#marker6832)"
         d="M -82.489202,130.10943 23.155141,10.857939"
         id="path6822" />
      <path
         style="fill:none;stroke:#000000;stroke-width:0.264583px;stroke-linecap:butt;stroke-linejoin:miter;stroke-opacity:1;marker-end:url(#marker9614)"
         d="M 72.969657,5.8757698 180.12238,129.89707"
         id="path9604" />
      <path
         style="fill:none;stroke:#000000;stroke-width:0.264583px;stroke-linecap:butt;stroke-linejoin:miter;stroke-opacity:1;marker-end:url(#marker9902)"
         d="M 73.192349,41.702593 174.24245,133.37157"
         id="path9892" />
      <path
         style="fill:none;stroke:#000000;stroke-width:0.264583px;stroke-linecap:butt;stroke-linejoin:miter;stroke-opacity:1;marker-end:url(#marker10196)"
         d="M 85.497662,100.94184 173.50746,135.777"
         id="path10186" />
      <path
         style="fill:none;stroke:#000000;stroke-width:0.264583px;stroke-linecap:butt;stroke-linejoin:miter;stroke-opacity:1;marker-end:url(#marker10496)"
         d="M 98.771845,160.3356 174.6291,140.69276"
         id="path10486" />
      <path
         style="fill:none;stroke:#000000;stroke-width:0.264583px;stroke-linecap:butt;stroke-linejoin:miter;stroke-opacity:1;marker-end:url(#marker10802)"
         d="M 84.424081,212.13562 179.85511,143.79508"
         id="path10792" />
    </g>
    <g
       inkscape:label="Layer 1"
       id="layer1-2"
       transform="translate(13.522265,125.30379)">
      <circle
         style="fill:#ffffff;fill-rule:evenodd;stroke:#000000;stroke-width:0.368905;stroke-miterlimit:4;stroke-dasharray:none;stroke-opacity:1"
         id="path1219-6-7-3"
         sodipodi:type="arc"
         sodipodi:cx="89.740898"
         sodipodi:cy="45.957375"
         sodipodi:rx="7.0338039"
         sodipodi:ry="6.7331791"
         sodipodi:start="6.2770896"
         sodipodi:end="6.2730296"
         sodipodi:arc-type="arc"
         sodipodi:open="true"
         d="m 96.774571,45.916331 a 7.0338039,6.7331791 0 0 1 -6.983658,6.774052 7.0338039,6.7331791 0 0 1 -7.083587,-6.678297 7.0338039,6.7331791 0 0 1 6.969279,-6.787609 7.0338039,6.7331791 0 0 1 7.097734,6.664519" />
      <path
         style="fill:none;stroke:#000000;stroke-width:0.179419px;stroke-linecap:butt;stroke-linejoin:miter;stroke-opacity:1;marker-end:url(#Arrow1Lend-6)"
         d="m 96.774569,45.916338 22.931671,-0.0285"
         id="path1822-2" />
      <text
         xml:space="preserve"
         style="font-style:normal;font-weight:normal;font-size:7.17675px;line-height:1.25;font-family:sans-serif;fill:#000000;fill-opacity:1;stroke:none;stroke-width:0.179419"
         x="93.948875"
         y="36.225616"
         id="text1846-53"
         transform="scale(1.0009604,0.99904053)"><tspan
           sodipodi:role="line"
           id="tspan1844-19"
           x="93.948875"
           y="36.225616"
           style="stroke-width:0.179419">[1-9A-F]</tspan></text>
      <text
         xml:space="preserve"
         style="font-style:normal;font-weight:normal;font-size:7.17675px;line-height:1.25;font-family:sans-serif;fill:#000000;fill-opacity:1;stroke:none;stroke-width:0.179419"
         x="111.60993"
         y="81.181427"
         id="text1846-9-0"
         transform="scale(1.0009604,0.99904053)"><tspan
           sodipodi:role="line"
           id="tspan1844-1-8"
           x="111.60993"
           y="81.181427"
           style="stroke-width:0.179419">[0-9A-F]</tspan></text>
      <circle
         style="fill:#ffffff;fill-rule:evenodd;stroke:#000000;stroke-width:0.368905;stroke-miterlimit:4;stroke-dasharray:none;stroke-opacity:1"
         id="path1219-6-5-8-8-3"
         sodipodi:type="arc"
         sodipodi:cx="126.87624"
         sodipodi:cy="45.75956"
         sodipodi:rx="7.0338039"
         sodipodi:ry="6.7331791"
         sodipodi:start="6.2770896"
         sodipodi:end="6.2730296"
         sodipodi:arc-type="arc"
         sodipodi:open="true"
         d="m 133.90992,45.718516 a 7.0338039,6.7331791 0 0 1 -6.98366,6.774053 7.0338039,6.7331791 0 0 1 -7.08359,-6.678298 7.0338039,6.7331791 0 0 1 6.96928,-6.787609 7.0338039,6.7331791 0 0 1 7.09773,6.664519" />
      <circle
         style="fill:#ffffff;fill-rule:evenodd;stroke:#000000;stroke-width:0.368905;stroke-miterlimit:4;stroke-dasharray:none;stroke-opacity:1"
         id="path1219-6-7-5"
         sodipodi:type="arc"
         sodipodi:cx="51.080303"
         sodipodi:cy="45.35714"
         sodipodi:rx="7.0338039"
         sodipodi:ry="6.7331791"
         sodipodi:start="6.2770896"
         sodipodi:end="6.2730296"
         sodipodi:arc-type="arc"
         sodipodi:open="true"
         d="m 58.113976,45.316096 a 7.0338039,6.7331791 0 0 1 -6.983658,6.774052 7.0338039,6.7331791 0 0 1 -7.083587,-6.678297 7.0338039,6.7331791 0 0 1 6.969279,-6.787609 7.0338039,6.7331791 0 0 1 7.097734,6.664519" />
      <path
         style="fill:none;stroke:#000000;stroke-width:0.265;stroke-linecap:butt;stroke-linejoin:miter;stroke-miterlimit:4;stroke-dasharray:none;stroke-opacity:1;marker-end:url(#marker3235)"
         d="m 58.113741,45.288768 24.444118,-0.20406"
         id="path2634" />
      <text
         xml:space="preserve"
         style="font-style:normal;font-weight:normal;font-size:7.17675px;line-height:1.25;font-family:sans-serif;fill:#000000;fill-opacity:1;stroke:none;stroke-width:0.179419"
         x="66.619308"
         y="35.931385"
         id="text1846-5"
         transform="scale(1.0009604,0.99904053)"><tspan
           sodipodi:role="line"
           id="tspan1844-3"
           x="66.619308"
           y="35.931385"
           style="stroke-width:0.179419">x</tspan></text>
      <circle
         style="fill:#ffffff;fill-rule:evenodd;stroke:#000000;stroke-width:0.368905;stroke-miterlimit:4;stroke-dasharray:none;stroke-opacity:1"
         id="path1219-6-7-5-8"
         sodipodi:type="arc"
         sodipodi:cx="17.651859"
         sodipodi:cy="45.357635"
         sodipodi:rx="7.0338039"
         sodipodi:ry="6.7331791"
         sodipodi:start="6.2770896"
         sodipodi:end="6.2730296"
         sodipodi:arc-type="arc"
         sodipodi:open="true"
         d="m 24.685533,45.316592 a 7.0338039,6.7331791 0 0 1 -6.983659,6.774052 7.0338039,6.7331791 0 0 1 -7.083586,-6.678297 7.0338039,6.7331791 0 0 1 6.969278,-6.787609 7.0338039,6.7331791 0 0 1 7.097734,6.664518" />
      <path
         style="fill:none;stroke:#000000;stroke-width:0.238835;stroke-linecap:butt;stroke-linejoin:miter;stroke-miterlimit:4;stroke-dasharray:none;stroke-opacity:1;marker-end:url(#marker3235-1)"
         d="M 24.766194,45.301379 43.292863,45.082684"
         id="path2634-2" />
      <text
         xml:space="preserve"
         style="font-style:normal;font-weight:normal;font-size:7.17675px;line-height:1.25;font-family:sans-serif;fill:#000000;fill-opacity:1;stroke:none;stroke-width:0.179419"
         x="31.892889"
         y="36.583008"
         id="text1846-5-9"
         transform="scale(1.0009604,0.99904053)"><tspan
           sodipodi:role="line"
           id="tspan1844-3-7"
           x="31.892889"
           y="36.583008"
           style="stroke-width:0.179419">0</tspan></text>
      <path
         style="fill:none;stroke:#000000;stroke-width:0.265;stroke-linecap:butt;stroke-linejoin:miter;stroke-miterlimit:4;stroke-dasharray:none;stroke-opacity:1;marker-end:url(#marker5083)"
         d="M -43.004407,16.248292 56.592317,-71.253197"
         id="path5073" />
      <path
         style="fill:none;stroke:#000000;stroke-width:0.264583px;stroke-linecap:butt;stroke-linejoin:miter;stroke-opacity:1;marker-end:url(#marker5311)"
         d="M -41.020032,18.894125 30.133984,-12.666886"
         id="path5301" />
      <path
         style="fill:none;stroke:#000000;stroke-width:0.264583px;stroke-linecap:butt;stroke-linejoin:miter;stroke-opacity:1;marker-end:url(#marker5545)"
         d="M -40.783757,25.035318 10.398357,44.145087"
         id="path5535" />
      <path
         style="fill:none;stroke:#000000;stroke-width:0.264583px;stroke-linecap:butt;stroke-linejoin:miter;stroke-opacity:1;marker-end:url(#marker5785)"
         d="M -43.760359,27.965552 32.448094,94.659027"
         id="path5775" />
    </g>
    <g
       inkscape:label="Layer 1"
       id="layer1-6"
       transform="translate(33.895625,62.351672)">
      <circle
         style="fill:#ffffff;fill-rule:evenodd;stroke:#000000;stroke-width:0.368905;stroke-miterlimit:4;stroke-dasharray:none;stroke-opacity:1"
         id="path1219-6-5-8-8-5-7"
         sodipodi:type="arc"
         sodipodi:cx="195.42163"
         sodipodi:cy="85.181107"
         sodipodi:rx="7.0338039"
         sodipodi:ry="6.7331791"
         sodipodi:start="6.2770896"
         sodipodi:end="6.2730296"
         sodipodi:arc-type="arc"
         sodipodi:open="true"
         d="m 202.4553,85.140063 a 7.0338039,6.7331791 0 0 1 -6.98365,6.774052 7.0338039,6.7331791 0 0 1 -7.08359,-6.678297 7.0338039,6.7331791 0 0 1 6.96928,-6.787609 7.0338039,6.7331791 0 0 1 7.09773,6.664519" />
      <circle
         style="fill:#ffffff;fill-rule:evenodd;stroke:#000000;stroke-width:0.314625;stroke-miterlimit:4;stroke-dasharray:none;stroke-opacity:1"
         id="path1219-6-5-8-8-0-9-8"
         sodipodi:type="arc"
         sodipodi:cx="195.39424"
         sodipodi:cy="85.194847"
         sodipodi:rx="6.0215096"
         sodipodi:ry="5.7208853"
         sodipodi:start="6.2770896"
         sodipodi:end="6.2730296"
         sodipodi:arc-type="arc"
         sodipodi:open="true"
         d="m 201.41564,85.159974 a 6.0215096,5.7208853 0 0 1 -5.97858,5.755614 6.0215096,5.7208853 0 0 1 -6.06413,-5.674255 6.0215096,5.7208853 0 0 1 5.96627,-5.767132 6.0215096,5.7208853 0 0 1 6.07624,5.662547" />
      <circle
         style="fill:#ffffff;fill-rule:evenodd;stroke:#000000;stroke-width:0.368905;stroke-miterlimit:4;stroke-dasharray:none;stroke-opacity:1"
         id="path1219-6-7-0"
         sodipodi:type="arc"
         sodipodi:cx="55.29155"
         sodipodi:cy="48.981197"
         sodipodi:rx="7.0338039"
         sodipodi:ry="6.7331791"
         sodipodi:start="6.2770896"
         sodipodi:end="6.2730296"
         sodipodi:arc-type="arc"
         sodipodi:open="true"
         d="m 62.325223,48.940154 a 7.0338039,6.7331791 0 0 1 -6.983658,6.774052 7.0338039,6.7331791 0 0 1 -7.083587,-6.678297 7.0338039,6.7331791 0 0 1 6.969279,-6.787609 7.0338039,6.7331791 0 0 1 7.097734,6.664518" />
      <path
         style="fill:none;stroke:#000000;stroke-width:0.179419px;stroke-linecap:butt;stroke-linejoin:miter;stroke-opacity:1;marker-end:url(#Arrow1Lend-1)"
         d="m 62.325222,48.940146 22.931674,-0.02852"
         id="path1822-5" />
      <text
         xml:space="preserve"
         style="font-style:normal;font-weight:normal;font-size:7.17675px;line-height:1.25;font-family:sans-serif;fill:#000000;fill-opacity:1;stroke:none;stroke-width:0.179419"
         x="66.207909"
         y="38.449757"
         id="text1846-2"
         transform="scale(1.0009604,0.99904053)"><tspan
           sodipodi:role="line"
           id="tspan1844-6"
           x="66.207909"
           y="38.449757"
           style="stroke-width:0.179419">[1-7]</tspan></text>
      <text
         xml:space="preserve"
         style="font-style:normal;font-weight:normal;font-size:7.17675px;line-height:1.25;font-family:sans-serif;fill:#000000;fill-opacity:1;stroke:none;stroke-width:0.179419"
         x="86.005074"
         y="78.590088"
         id="text1846-9-7"
         transform="scale(1.0009604,0.99904053)"><tspan
           sodipodi:role="line"
           id="tspan1844-1-3"
           x="86.005074"
           y="78.590088"
           style="stroke-width:0.179419">[0-7]</tspan></text>
      <circle
         style="fill:#ffffff;fill-rule:evenodd;stroke:#000000;stroke-width:0.368905;stroke-miterlimit:4;stroke-dasharray:none;stroke-opacity:1"
         id="path1219-6-5-8-8-5"
         sodipodi:type="arc"
         sodipodi:cx="93.228699"
         sodipodi:cy="49.317913"
         sodipodi:rx="7.0338039"
         sodipodi:ry="6.7331791"
         sodipodi:start="6.2770896"
         sodipodi:end="6.2730296"
         sodipodi:arc-type="arc"
         sodipodi:open="true"
         d="m 100.26237,49.27687 a 7.0338039,6.7331791 0 0 1 -6.983656,6.774052 7.0338039,6.7331791 0 0 1 -7.083587,-6.678298 7.0338039,6.7331791 0 0 1 6.969279,-6.787609 7.0338039,6.7331791 0 0 1 7.097734,6.664519" />
      <circle
         style="fill:#ffffff;fill-rule:evenodd;stroke:#000000;stroke-width:0.368905;stroke-miterlimit:4;stroke-dasharray:none;stroke-opacity:1"
         id="path1219-6-7-5-9"
         sodipodi:type="arc"
         sodipodi:cx="16.630955"
         sodipodi:cy="48.380955"
         sodipodi:rx="7.0338039"
         sodipodi:ry="6.7331791"
         sodipodi:start="6.2770896"
         sodipodi:end="6.2730296"
         sodipodi:arc-type="arc"
         sodipodi:open="true"
         d="m 23.664628,48.339912 a 7.0338039,6.7331791 0 0 1 -6.983658,6.774052 7.0338039,6.7331791 0 0 1 -7.083587,-6.678298 7.0338039,6.7331791 0 0 1 6.969279,-6.787609 7.0338039,6.7331791 0 0 1 7.097734,6.664519" />
      <path
         style="fill:none;stroke:#000000;stroke-width:0.265;stroke-linecap:butt;stroke-linejoin:miter;stroke-miterlimit:4;stroke-dasharray:none;stroke-opacity:1;marker-end:url(#marker3235-3)"
         d="m 23.664396,48.312575 24.444119,-0.20406"
         id="path2634-1" />
      <text
         xml:space="preserve"
         style="font-style:normal;font-weight:normal;font-size:7.17675px;line-height:1.25;font-family:sans-serif;fill:#000000;fill-opacity:1;stroke:none;stroke-width:0.179419"
         x="32.203018"
         y="38.958107"
         id="text1846-5-6"
         transform="scale(1.0009604,0.99904053)"><tspan
           sodipodi:role="line"
           id="tspan1844-3-70"
           x="32.203018"
           y="38.958107"
           style="stroke-width:0.179419">0</tspan></text>
      <circle
         style="fill:#ffffff;fill-rule:evenodd;stroke:#000000;stroke-width:0.368905;stroke-miterlimit:4;stroke-dasharray:none;stroke-opacity:1"
         id="path1219-6-7-5-9-8"
         sodipodi:type="arc"
         sodipodi:cx="-67.571587"
         sodipodi:cy="85.181107"
         sodipodi:rx="7.0338039"
         sodipodi:ry="6.7331791"
         sodipodi:start="6.2770896"
         sodipodi:end="6.2730296"
         sodipodi:arc-type="arc"
         sodipodi:open="true"
         d="m -60.537913,85.140063 a 7.0338039,6.7331791 0 0 1 -6.983659,6.774052 7.0338039,6.7331791 0 0 1 -7.083586,-6.678297 7.0338039,6.7331791 0 0 1 6.969278,-6.787609 7.0338039,6.7331791 0 0 1 7.097735,6.664519" />
      <path
         style="fill:none;stroke:#000000;stroke-width:0.265;stroke-linecap:butt;stroke-linejoin:miter;stroke-miterlimit:4;stroke-dasharray:none;stroke-opacity:1;marker-end:url(#marker2907-1-0)"
         d="M 88.523994,54.034002 80.773184,71.94106 H 104.56016 L 98.145702,54.56854"
         id="path2897-3-0" />
      <path
         style="fill:none;stroke:#000000;stroke-width:0.265;stroke-linecap:butt;stroke-linejoin:miter;stroke-miterlimit:4;stroke-dasharray:none;stroke-opacity:1;marker-end:url(#marker2907-1-5)"
         d="M 76.09157,-4.7950224 68.340747,13.112036 H 92.12774 L 85.71327,-4.2604844"
         id="path2897-3-6" />
    </g>
    <g
       inkscape:label="Layer 1"
       id="layer1-8"
       transform="translate(35.460214,177.85976)">
      <path
         style="fill:none;stroke:#000000;stroke-width:0.265;stroke-linecap:butt;stroke-linejoin:miter;stroke-miterlimit:4;stroke-dasharray:none;stroke-opacity:1;marker-end:url(#marker2907-1)"
         d="M 85.757351,50.131949 78.006533,68.039007 H 101.79353 L 95.379053,50.666487"
         id="path2897-3" />
      <text
         xml:space="preserve"
         style="font-style:normal;font-weight:normal;font-size:7.17675px;line-height:1.25;font-family:sans-serif;fill:#000000;fill-opacity:1;stroke:none;stroke-width:0.179419"
         x="82.66922"
         y="76.651138"
         id="text1846-9-4"
         transform="scale(1.0009604,0.99904053)"><tspan
           sodipodi:role="line"
           x="82.66922"
           y="76.651138"
           style="stroke-width:0.179419"
           id="tspan2893">[0-9]</tspan></text>
      <circle
         style="fill:#ffffff;fill-rule:evenodd;stroke:#000000;stroke-width:0.368905;stroke-miterlimit:4;stroke-dasharray:none;stroke-opacity:1"
         id="path1219-6-5-8-8-8"
         sodipodi:type="arc"
         sodipodi:cx="90.59053"
         sodipodi:cy="45.003609"
         sodipodi:rx="7.0338039"
         sodipodi:ry="6.7331791"
         sodipodi:start="6.2770896"
         sodipodi:end="6.2730296"
         sodipodi:arc-type="arc"
         sodipodi:open="true"
         d="m 97.624204,44.962565 a 7.0338039,6.7331791 0 0 1 -6.983659,6.774053 7.0338039,6.7331791 0 0 1 -7.083586,-6.678298 7.0338039,6.7331791 0 0 1 6.969278,-6.787609 7.0338039,6.7331791 0 0 1 7.097735,6.664519" />
      <circle
         style="fill:#ffffff;fill-rule:evenodd;stroke:#000000;stroke-width:0.368905;stroke-miterlimit:4;stroke-dasharray:none;stroke-opacity:1"
         id="path1219-6-7-5-7"
         sodipodi:type="arc"
         sodipodi:cx="51.080303"
         sodipodi:cy="45.35714"
         sodipodi:rx="7.0338039"
         sodipodi:ry="6.7331791"
         sodipodi:start="6.2770896"
         sodipodi:end="6.2730296"
         sodipodi:arc-type="arc"
         sodipodi:open="true"
         d="m 58.113976,45.316096 a 7.0338039,6.7331791 0 0 1 -6.983658,6.774052 7.0338039,6.7331791 0 0 1 -7.083587,-6.678297 7.0338039,6.7331791 0 0 1 6.969279,-6.787609 7.0338039,6.7331791 0 0 1 7.097734,6.664519" />
      <path
         style="fill:none;stroke:#000000;stroke-width:0.265;stroke-linecap:butt;stroke-linejoin:miter;stroke-miterlimit:4;stroke-dasharray:none;stroke-opacity:1;marker-end:url(#marker3235-7)"
         d="m 58.113741,45.288768 24.444118,-0.20406"
         id="path2634-19" />
      <text
         xml:space="preserve"
         style="font-style:normal;font-weight:normal;font-size:7.17675px;line-height:1.25;font-family:sans-serif;fill:#000000;fill-opacity:1;stroke:none;stroke-width:0.179419"
         x="40.186363"
         y="76.035339"
         id="text1846-5-7"
         transform="scale(1.0009604,0.99904053)"><tspan
           sodipodi:role="line"
           id="tspan1844-3-5"
           x="40.186363"
           y="76.035339"
           style="stroke-width:0.179419">[0-9]</tspan></text>
      <circle
         style="fill:#ffffff;fill-rule:evenodd;stroke:#000000;stroke-width:0.368905;stroke-miterlimit:4;stroke-dasharray:none;stroke-opacity:1"
         id="path1219-6-7-5-8-4"
         sodipodi:type="arc"
         sodipodi:cx="17.651859"
         sodipodi:cy="45.357635"
         sodipodi:rx="7.0338039"
         sodipodi:ry="6.7331791"
         sodipodi:start="6.2770896"
         sodipodi:end="6.2730296"
         sodipodi:arc-type="arc"
         sodipodi:open="true"
         d="m 24.685533,45.316592 a 7.0338039,6.7331791 0 0 1 -6.983659,6.774052 7.0338039,6.7331791 0 0 1 -7.083586,-6.678297 7.0338039,6.7331791 0 0 1 6.969278,-6.787609 7.0338039,6.7331791 0 0 1 7.097734,6.664518" />
      <path
         style="fill:none;stroke:#000000;stroke-width:0.238835;stroke-linecap:butt;stroke-linejoin:miter;stroke-miterlimit:4;stroke-dasharray:none;stroke-opacity:1;marker-end:url(#marker3235-1-4)"
         d="M 24.766194,45.301379 43.292863,45.082684"
         id="path2634-2-2" />
      <text
         xml:space="preserve"
         style="font-style:normal;font-weight:normal;font-size:7.17675px;line-height:1.25;font-family:sans-serif;fill:#000000;fill-opacity:1;stroke:none;stroke-width:0.179419"
         x="24.950548"
         y="36.583008"
         id="text1846-5-9-3"
         transform="scale(1.0009604,0.99904053)"><tspan
           sodipodi:role="line"
           id="tspan1844-3-7-7"
           x="24.950548"
           y="36.583008"
           style="stroke-width:0.179419">[0-9]</tspan></text>
      <text
         xml:space="preserve"
         style="font-style:normal;font-weight:normal;font-size:10.5833px;line-height:1.25;font-family:sans-serif;fill:#000000;fill-opacity:1;stroke:none;stroke-width:0.264583"
         x="68.734802"
         y="36.942486"
         id="text2891"><tspan
           sodipodi:role="line"
           id="tspan2889"
           x="68.734802"
           y="36.942486"
           style="stroke-width:0.264583">.</tspan></text>
      <path
         style="fill:none;stroke:#000000;stroke-width:0.265;stroke-linecap:butt;stroke-linejoin:miter;stroke-miterlimit:4;stroke-dasharray:none;stroke-opacity:1;marker-end:url(#marker2907)"
         d="M 45.422466,50.187308 37.671648,68.094366 H 61.458637 L 55.044168,50.721846"
         id="path2897" />
      <path
         style="fill:none;stroke:#000000;stroke-width:0.265;stroke-linecap:butt;stroke-linejoin:miter;stroke-miterlimit:4;stroke-dasharray:none;stroke-opacity:1;marker-end:url(#marker2907-1-2)"
         d="M 100.16336,-1.4742722 92.412544,16.432779 h 23.787006 l -6.41447,-17.37251358"
         id="path2897-3-8" />
    </g>
  </g>
</svg>
