<?xml version="1.0" encoding="UTF-8" standalone="no"?>
<svg
   xmlns:dc="http://purl.org/dc/elements/1.1/"
   xmlns:cc="http://creativecommons.org/ns#"
   xmlns:rdf="http://www.w3.org/1999/02/22-rdf-syntax-ns#"
   xmlns:svg="http://www.w3.org/2000/svg"
   xmlns="http://www.w3.org/2000/svg"
   xmlns:sodipodi="http://sodipodi.sourceforge.net/DTD/sodipodi-0.dtd"
   xmlns:inkscape="http://www.inkscape.org/namespaces/inkscape"
   width="76.543465mm"
   height="86.069519mm"
   viewBox="0 0 76.543464 86.06952"
   version="1.1"
   id="svg2016"
   inkscape:version="1.0.2-2 (e86c870879, 2021-01-15)"
   sodipodi:docname="mealy.svg">
  <defs
     id="defs2010">
    <marker
       style="overflow:visible"
       id="marker3147"
       refX="0"
       refY="0"
       orient="auto"
       inkscape:stockid="Arrow1Lend"
       inkscape:isstock="true">
      <path
         transform="matrix(-0.8,0,0,-0.8,-10,0)"
         style="fill:#000000;fill-opacity:1;fill-rule:evenodd;stroke:#000000;stroke-width:1pt;stroke-opacity:1"
         d="M 0,0 5,-5 -12.5,0 5,5 Z"
         id="path3145" />
    </marker>
    <marker
       style="overflow:visible"
       id="marker3063"
       refX="0"
       refY="0"
       orient="auto"
       inkscape:stockid="Arrow1Lend"
       inkscape:isstock="true"
       inkscape:collect="always">
      <path
         transform="matrix(-0.8,0,0,-0.8,-10,0)"
         style="fill:#000000;fill-opacity:1;fill-rule:evenodd;stroke:#000000;stroke-width:1pt;stroke-opacity:1"
         d="M 0,0 5,-5 -12.5,0 5,5 Z"
         id="path3061" />
    </marker>
    <marker
       style="overflow:visible"
       id="marker2985"
       refX="0"
       refY="0"
       orient="auto"
       inkscape:stockid="Arrow1Lend"
       inkscape:isstock="true"
       inkscape:collect="always">
      <path
         transform="matrix(-0.8,0,0,-0.8,-10,0)"
         style="fill:#000000;fill-opacity:1;fill-rule:evenodd;stroke:#000000;stroke-width:1pt;stroke-opacity:1"
         d="M 0,0 5,-5 -12.5,0 5,5 Z"
         id="path2983" />
    </marker>
    <marker
       style="overflow:visible"
       id="marker2913"
       refX="0"
       refY="0"
       orient="auto"
       inkscape:stockid="Arrow1Lend"
       inkscape:isstock="true"
       inkscape:collect="always">
      <path
         transform="matrix(-0.8,0,0,-0.8,-10,0)"
         style="fill:#000000;fill-opacity:1;fill-rule:evenodd;stroke:#000000;stroke-width:1pt;stroke-opacity:1"
         d="M 0,0 5,-5 -12.5,0 5,5 Z"
         id="path2911" />
    </marker>
    <marker
       style="overflow:visible"
       id="marker2557"
       refX="0"
       refY="0"
       orient="auto"
       inkscape:stockid="Arrow1Lend"
       inkscape:isstock="true"
       inkscape:collect="always">
      <path
         transform="matrix(-0.8,0,0,-0.8,-10,0)"
         style="fill:#000000;fill-opacity:1;fill-rule:evenodd;stroke:#000000;stroke-width:1pt;stroke-opacity:1"
         d="M 0,0 5,-5 -12.5,0 5,5 Z"
         id="path2555" />
    </marker>
    <marker
       style="overflow:visible"
       id="marker2407"
       refX="0"
       refY="0"
       orient="auto"
       inkscape:stockid="Arrow1Lend"
       inkscape:isstock="true"
       inkscape:collect="always">
      <path
         transform="matrix(-0.8,0,0,-0.8,-10,0)"
         style="fill:#000000;fill-opacity:1;fill-rule:evenodd;stroke:#000000;stroke-width:1pt;stroke-opacity:1"
         d="M 0,0 5,-5 -12.5,0 5,5 Z"
         id="path2405" />
    </marker>
    <marker
       style="overflow:visible"
       id="marker2341"
       refX="0"
       refY="0"
       orient="auto"
       inkscape:stockid="Arrow1Lend"
       inkscape:isstock="true"
       inkscape:collect="always">
      <path
         transform="matrix(-0.8,0,0,-0.8,-10,0)"
         style="fill:#000000;fill-opacity:1;fill-rule:evenodd;stroke:#000000;stroke-width:1pt;stroke-opacity:1"
         d="M 0,0 5,-5 -12.5,0 5,5 Z"
         id="path2339" />
    </marker>
    <marker
       style="overflow:visible"
       id="marker4760"
       refX="0"
       refY="0"
       orient="auto"
       inkscape:stockid="Arrow1Lend"
       inkscape:isstock="true"
       inkscape:collect="always">
      <path
         transform="matrix(-0.8,0,0,-0.8,-10,0)"
         style="fill:#000000;fill-opacity:1;fill-rule:evenodd;stroke:#000000;stroke-width:1pt;stroke-opacity:1"
         d="M 0,0 5,-5 -12.5,0 5,5 Z"
         id="path4758" />
    </marker>
    <marker
       style="overflow:visible"
       id="Arrow1Lend-5"
       refX="0"
       refY="0"
       orient="auto"
       inkscape:stockid="Arrow1Lend"
       inkscape:isstock="true">
      <path
         transform="matrix(-0.8,0,0,-0.8,-10,0)"
         style="fill:#000000;fill-opacity:1;fill-rule:evenodd;stroke:#000000;stroke-width:1pt;stroke-opacity:1"
         d="M 0,0 5,-5 -12.5,0 5,5 Z"
         id="path1783-0" />
    </marker>
    <marker
       style="overflow:visible"
       id="marker2158"
       refX="0"
       refY="0"
       orient="auto"
       inkscape:stockid="Arrow1Lend"
       inkscape:isstock="true">
      <path
         transform="matrix(-0.8,0,0,-0.8,-10,0)"
         style="fill:#000000;fill-opacity:1;fill-rule:evenodd;stroke:#000000;stroke-width:1pt;stroke-opacity:1"
         d="M 0,0 5,-5 -12.5,0 5,5 Z"
         id="path2156" />
    </marker>
  </defs>
  <sodipodi:namedview
     id="base"
     pagecolor="#ffffff"
     bordercolor="#666666"
     borderopacity="1.0"
     inkscape:pageopacity="0.0"
     inkscape:pageshadow="2"
     inkscape:zoom="0.98994949"
     inkscape:cx="186.69327"
     inkscape:cy="164.05767"
     inkscape:document-units="mm"
     inkscape:current-layer="layer1"
     inkscape:document-rotation="0"
     showgrid="false"
     inkscape:window-width="1920"
     inkscape:window-height="1017"
     inkscape:window-x="1912"
     inkscape:window-y="-8"
     inkscape:window-maximized="1"
     fit-margin-left="2"
     fit-margin-top="2"
     fit-margin-right="2"
     fit-margin-bottom="2" />
  <metadata
     id="metadata2013">
    <rdf:RDF>
      <cc:Work
         rdf:about="">
        <dc:format>image/svg+xml</dc:format>
        <dc:type
           rdf:resource="http://purl.org/dc/dcmitype/StillImage" />
        <dc:title />
      </cc:Work>
    </rdf:RDF>
  </metadata>
  <g
     inkscape:label="Layer 1"
     inkscape:groupmode="layer"
     id="layer1"
     transform="translate(-92.105415,-78.851673)">
    <text
       xml:space="preserve"
       style="font-style:normal;font-weight:normal;font-size:5.5953px;line-height:1.25;font-family:sans-serif;baseline-shift:baseline;fill:#000000;fill-opacity:1;stroke:none;stroke-width:0.123368"
       x="118.4907"
       y="91.936653"
       id="text2210"
       transform="scale(0.88069482,1.1354671)"><tspan
         sodipodi:role="line"
         id="tspan2208"
         x="118.4907"
         y="91.936653"
         style="baseline-shift:baseline;stroke-width:0.123368">S<tspan
   style="font-size:3.63694px;baseline-shift:sub;stroke-width:0.123368"
   id="tspan2123">(0,0)</tspan> </tspan></text>
    <g
       id="g1031-5"
       transform="matrix(0.38498073,0,0,0.39832367,-186.76376,-61.425897)"
       style="fill:none">
      <path
         d="m 788.613,413.824 c 0.059,8.949 -7.527,16.254 -16.945,16.317 -9.422,0.062 -17.113,-7.137 -17.191,-16.086 -0.075,-8.95 7.492,-16.266 16.914,-16.348 9.418,-0.082 17.129,7.102 17.222,16.051"
         style="fill:none;fill-opacity:1;fill-rule:evenodd;stroke:#000000;stroke-width:0.89185;stroke-linecap:butt;stroke-linejoin:miter;stroke-miterlimit:4;stroke-dasharray:none;stroke-opacity:1"
         id="path1033-5" />
    </g>
    <text
       xml:space="preserve"
       style="font-style:normal;font-weight:normal;font-size:5.5953px;line-height:1.25;font-family:sans-serif;baseline-shift:baseline;fill:#000000;fill-opacity:1;stroke:none;stroke-width:0.123368"
       x="167.4926"
       y="92.335587"
       id="text2210-4"
       transform="scale(0.88069482,1.1354671)"><tspan
         sodipodi:role="line"
         id="tspan2208-2"
         x="167.4926"
         y="92.335587"
         style="baseline-shift:baseline;stroke-width:0.123368">S<tspan
   style="font-size:3.63694px;baseline-shift:sub;stroke-width:0.123368"
   id="tspan2123-1">(0,1)</tspan> </tspan></text>
    <g
       id="g1031-5-2"
       transform="matrix(0.38498073,0,0,0.39832367,-143.60803,-60.972922)"
       style="fill:none">
      <path
         d="m 788.613,413.824 c 0.059,8.949 -7.527,16.254 -16.945,16.317 -9.422,0.062 -17.113,-7.137 -17.191,-16.086 -0.075,-8.95 7.492,-16.266 16.914,-16.348 9.418,-0.082 17.129,7.102 17.222,16.051"
         style="fill:none;fill-opacity:1;fill-rule:evenodd;stroke:#000000;stroke-width:0.89185;stroke-linecap:butt;stroke-linejoin:miter;stroke-miterlimit:4;stroke-dasharray:none;stroke-opacity:1"
         id="path1033-5-9" />
    </g>
    <text
       xml:space="preserve"
       style="font-style:normal;font-weight:normal;font-size:5.5953px;line-height:1.25;font-family:sans-serif;baseline-shift:baseline;fill:#000000;fill-opacity:1;stroke:none;stroke-width:0.123368"
       x="168.22223"
       y="122.62782"
       id="text2210-2"
       transform="scale(0.88069482,1.1354671)"><tspan
         sodipodi:role="line"
         id="tspan2208-4"
         x="168.22223"
         y="122.62782"
         style="baseline-shift:baseline;stroke-width:0.123368">S<tspan
   style="font-size:3.63694px;baseline-shift:sub;stroke-width:0.123368"
   id="tspan2123-18">(1,1)</tspan> </tspan></text>
    <g
       id="g1031-5-1"
       transform="matrix(0.38498073,0,0,0.39832367,-142.96549,-26.577089)"
       style="fill:none">
      <path
         d="m 788.613,413.824 c 0.059,8.949 -7.527,16.254 -16.945,16.317 -9.422,0.062 -17.113,-7.137 -17.191,-16.086 -0.075,-8.95 7.492,-16.266 16.914,-16.348 9.418,-0.082 17.129,7.102 17.222,16.051"
         style="fill:none;fill-opacity:1;fill-rule:evenodd;stroke:#000000;stroke-width:0.89185;stroke-linecap:butt;stroke-linejoin:miter;stroke-miterlimit:4;stroke-dasharray:none;stroke-opacity:1"
         id="path1033-5-2" />
    </g>
    <text
       xml:space="preserve"
       style="font-style:normal;font-weight:normal;font-size:5.5953px;line-height:1.25;font-family:sans-serif;baseline-shift:baseline;fill:#000000;fill-opacity:1;stroke:none;stroke-width:0.123368"
       x="118.73782"
       y="121.62917"
       id="text2210-3"
       transform="scale(0.88069482,1.1354671)"><tspan
         sodipodi:role="line"
         id="tspan2208-20"
         x="118.73782"
         y="121.62917"
         style="baseline-shift:baseline;stroke-width:0.123368">S<tspan
   style="font-size:3.63694px;baseline-shift:sub;stroke-width:0.123368"
   id="tspan2123-5">(1,0)</tspan> </tspan></text>
    <g
       id="g1031-5-19"
       transform="matrix(0.38498073,0,0,0.39832367,-186.54613,-27.711018)"
       style="fill:none">
      <path
         d="m 788.613,413.824 c 0.059,8.949 -7.527,16.254 -16.945,16.317 -9.422,0.062 -17.113,-7.137 -17.191,-16.086 -0.075,-8.95 7.492,-16.266 16.914,-16.348 9.418,-0.082 17.129,7.102 17.222,16.051"
         style="fill:none;fill-opacity:1;fill-rule:evenodd;stroke:#000000;stroke-width:0.89185;stroke-linecap:butt;stroke-linejoin:miter;stroke-miterlimit:4;stroke-dasharray:none;stroke-opacity:1"
         id="path1033-5-5" />
    </g>
    <path
       style="fill:none;stroke:#000000;stroke-width:0.265;stroke-linecap:butt;stroke-linejoin:miter;stroke-miterlimit:3.9;stroke-dasharray:none;stroke-opacity:1;marker-end:url(#marker4760)"
       d="m 116.83705,103.38371 29.78126,0.33005"
       id="path2203" />
    <path
       style="fill:none;stroke:#000000;stroke-width:0.264583px;stroke-linecap:butt;stroke-linejoin:miter;stroke-opacity:1;marker-end:url(#marker2341)"
       d="m 107.30879,97.288162 -5.10268,-11.717263 13.79613,0.188989 -4.34673,10.961309"
       id="path2331" />
    <path
       style="fill:none;stroke:#000000;stroke-width:0.264583px;stroke-linecap:butt;stroke-linejoin:miter;stroke-opacity:1;marker-end:url(#marker2407)"
       d="m 151.04062,144.15721 -4.7247,13.79613 15.49702,-0.37798 -5.29167,-12.85119"
       id="path2397" />
    <path
       style="fill:none;stroke:#000000;stroke-width:0.264583px;stroke-linecap:butt;stroke-linejoin:miter;stroke-opacity:1;marker-end:url(#marker2557)"
       d="m 153.61087,110.32834 0.37797,21.35566"
       id="path2889" />
    <path
       style="fill:none;stroke:#000000;stroke-width:0.264583px;stroke-linecap:butt;stroke-linejoin:miter;stroke-opacity:1;marker-end:url(#marker2913)"
       d="m 147.56325,107.8715 -21.54464,7.55952 -13.22917,15.30803"
       id="path2903" />
    <path
       style="fill:none;stroke:#000000;stroke-width:0.264583px;stroke-linecap:butt;stroke-linejoin:miter;stroke-opacity:1;marker-end:url(#marker2985)"
       d="m 116.28572,133.66837 21.26116,-7.27604 13.13467,-16.44197"
       id="path2975" />
    <path
       style="fill:none;stroke:#000000;stroke-width:0.264583px;stroke-linecap:butt;stroke-linejoin:miter;stroke-opacity:1;marker-end:url(#marker3063)"
       d="M 110.04911,130.36108 V 110.04486"
       id="path3053" />
    <path
       style="fill:none;stroke:#000000;stroke-width:0.264583px;stroke-linecap:butt;stroke-linejoin:miter;stroke-opacity:1;marker-end:url(#marker3147)"
       d="m 147.56325,138.10959 -30.50857,-0.98471"
       id="path3137" />
    <text
       xml:space="preserve"
       style="font-style:normal;font-weight:normal;font-size:3.38686px;line-height:1.25;font-family:sans-serif;fill:#000000;fill-opacity:1;stroke:none;stroke-width:0.0846719"
       x="109.01209"
       y="80.356071"
       id="text3229"
       transform="scale(0.96204381,1.0394537)"><tspan
         sodipodi:role="line"
         id="tspan3227"
         x="109.01209"
         y="80.356071"
         style="stroke-width:0.0846719">0/000</tspan></text>
    <text
       xml:space="preserve"
       style="font-style:normal;font-weight:normal;font-size:3.38686px;line-height:1.25;font-family:sans-serif;fill:#000000;fill-opacity:1;stroke:none;stroke-width:0.0846719"
       x="153.98798"
       y="156.23459"
       id="text3229-4"
       transform="scale(0.96204381,1.0394537)"><tspan
         sodipodi:role="line"
         id="tspan3227-3"
         x="153.98798"
         y="156.23459"
         style="stroke-width:0.0846719">1/100</tspan></text>
    <text
       xml:space="preserve"
       style="font-style:normal;font-weight:normal;font-size:3.38686px;line-height:1.25;font-family:sans-serif;fill:#000000;fill-opacity:1;stroke:none;stroke-width:0.0846719"
       x="132.73517"
       y="137.59303"
       id="text3229-0"
       transform="scale(0.96204381,1.0394537)"><tspan
         sodipodi:role="line"
         id="tspan3227-6"
         x="132.73517"
         y="137.59303"
         style="stroke-width:0.0846719">0/010</tspan></text>
    <text
       xml:space="preserve"
       style="font-style:normal;font-weight:normal;font-size:3.38686px;line-height:1.25;font-family:sans-serif;fill:#000000;fill-opacity:1;stroke:none;stroke-width:0.0846719"
       x="163.43365"
       y="115.60884"
       id="text3229-1"
       transform="scale(0.96204381,1.0394537)"><tspan
         sodipodi:role="line"
         id="tspan3227-8"
         x="163.43365"
         y="115.60884"
         style="stroke-width:0.0846719">1/011</tspan></text>
    <text
       xml:space="preserve"
       style="font-style:normal;font-weight:normal;font-size:3.38686px;line-height:1.25;font-family:sans-serif;fill:#000000;fill-opacity:1;stroke:none;stroke-width:0.0846719"
       x="97.59166"
       y="116.38022"
       id="text3229-9"
       transform="scale(0.96204381,1.0394537)"><tspan
         sodipodi:role="line"
         id="tspan3227-9"
         x="97.59166"
         y="116.38022"
         style="stroke-width:0.0846719">0/111</tspan></text>
    <text
       xml:space="preserve"
       style="font-style:normal;font-weight:normal;font-size:3.38686px;line-height:1.25;font-family:sans-serif;fill:#000000;fill-opacity:1;stroke:none;stroke-width:0.0846719"
       x="129.2625"
       y="95.681656"
       id="text3229-18"
       transform="scale(0.96204381,1.0394537)"><tspan
         sodipodi:role="line"
         id="tspan3227-37"
         x="129.2625"
         y="95.681656"
         style="stroke-width:0.0846719">1/110</tspan></text>
    <text
       xml:space="preserve"
       style="font-style:normal;font-weight:normal;font-size:3.38686px;line-height:1.25;font-family:sans-serif;fill:#000000;fill-opacity:1;stroke:none;stroke-width:0.0846719"
       x="120.78915"
       y="108.15221"
       id="text3229-8"
       transform="scale(0.96204381,1.0394537)"><tspan
         sodipodi:role="line"
         id="tspan3227-7"
         x="120.78915"
         y="108.15221"
         style="stroke-width:0.0846719">0/101</tspan></text>
    <text
       xml:space="preserve"
       style="font-style:normal;font-weight:normal;font-size:3.38686px;line-height:1.25;font-family:sans-serif;fill:#000000;fill-opacity:1;stroke:none;stroke-width:0.0846719"
       x="139.81944"
       y="125.76527"
       id="text3229-84"
       transform="scale(0.96204381,1.0394537)"><tspan
         sodipodi:role="line"
         id="tspan3227-1"
         x="139.81944"
         y="125.76527"
         style="stroke-width:0.0846719">1/001</tspan></text>
  </g>
</svg>
