<?xml version="1.0" encoding="UTF-8" standalone="no"?>
<svg
   width="87.373474mm"
   height="50.048588mm"
   viewBox="0 0 87.373472 50.048588"
   version="1.1"
   id="svg2016"
   inkscape:version="1.1 (c4e8f9e, 2021-05-24)"
   sodipodi:docname="odd.svg"
   xmlns:inkscape="http://www.inkscape.org/namespaces/inkscape"
   xmlns:sodipodi="http://sodipodi.sourceforge.net/DTD/sodipodi-0.dtd"
   xmlns="http://www.w3.org/2000/svg"
   xmlns:svg="http://www.w3.org/2000/svg"
   xmlns:rdf="http://www.w3.org/1999/02/22-rdf-syntax-ns#"
   xmlns:cc="http://creativecommons.org/ns#"
   xmlns:dc="http://purl.org/dc/elements/1.1/">
  <defs
     id="defs2010">
    <marker
       style="overflow:visible"
       id="marker4760"
       refX="0"
       refY="0"
       orient="auto"
       inkscape:stockid="Arrow1Lend"
       inkscape:isstock="true">
      <path
         transform="matrix(-0.8,0,0,-0.8,-10,0)"
         style="fill:#000000;fill-opacity:1;fill-rule:evenodd;stroke:#000000;stroke-width:1pt;stroke-opacity:1"
         d="M 0,0 5,-5 -12.5,0 5,5 Z"
         id="path4758" />
    </marker>
    <marker
       style="overflow:visible"
       id="marker3618"
       refX="0"
       refY="0"
       orient="auto"
       inkscape:stockid="Arrow1Lend"
       inkscape:isstock="true"
       inkscape:collect="always">
      <path
         transform="matrix(-0.8,0,0,-0.8,-10,0)"
         style="fill:#000000;fill-opacity:1;fill-rule:evenodd;stroke:#000000;stroke-width:1pt;stroke-opacity:1"
         d="M 0,0 5,-5 -12.5,0 5,5 Z"
         id="path3616" />
    </marker>
    <marker
       style="overflow:visible"
       id="Arrow1Lend-5"
       refX="0"
       refY="0"
       orient="auto"
       inkscape:stockid="Arrow1Lend"
       inkscape:isstock="true">
      <path
         transform="matrix(-0.8,0,0,-0.8,-10,0)"
         style="fill:#000000;fill-opacity:1;fill-rule:evenodd;stroke:#000000;stroke-width:1pt;stroke-opacity:1"
         d="M 0,0 5,-5 -12.5,0 5,5 Z"
         id="path1783-0" />
    </marker>
    <marker
       style="overflow:visible"
       id="marker2158"
       refX="0"
       refY="0"
       orient="auto"
       inkscape:stockid="Arrow1Lend"
       inkscape:isstock="true">
      <path
         transform="matrix(-0.8,0,0,-0.8,-10,0)"
         style="fill:#000000;fill-opacity:1;fill-rule:evenodd;stroke:#000000;stroke-width:1pt;stroke-opacity:1"
         d="M 0,0 5,-5 -12.5,0 5,5 Z"
         id="path2156" />
    </marker>
    <marker
       style="overflow:visible"
       id="marker3618-2"
       refX="0"
       refY="0"
       orient="auto"
       inkscape:stockid="Arrow1Lend"
       inkscape:isstock="true"
       inkscape:collect="always">
      <path
         transform="matrix(-0.8,0,0,-0.8,-10,0)"
         style="fill:#000000;fill-opacity:1;fill-rule:evenodd;stroke:#000000;stroke-width:1pt;stroke-opacity:1"
         d="M 0,0 5,-5 -12.5,0 5,5 Z"
         id="path3616-2" />
    </marker>
    <marker
       style="overflow:visible"
       id="marker4760-8"
       refX="0"
       refY="0"
       orient="auto"
       inkscape:stockid="Arrow1Lend"
       inkscape:isstock="true">
      <path
         transform="matrix(-0.8,0,0,-0.8,-10,0)"
         style="fill:#000000;fill-opacity:1;fill-rule:evenodd;stroke:#000000;stroke-width:1pt;stroke-opacity:1"
         d="M 0,0 5,-5 -12.5,0 5,5 Z"
         id="path4758-6" />
    </marker>
  </defs>
  <sodipodi:namedview
     id="base"
     pagecolor="#ffffff"
     bordercolor="#666666"
     borderopacity="1.0"
     inkscape:pageopacity="0.0"
     inkscape:pageshadow="2"
     inkscape:zoom="1.4"
     inkscape:cx="324.28571"
     inkscape:cy="178.92857"
     inkscape:document-units="mm"
     inkscape:current-layer="layer1"
     inkscape:document-rotation="0"
     showgrid="false"
     inkscape:window-width="1792"
     inkscape:window-height="1067"
     inkscape:window-x="0"
     inkscape:window-y="25"
     inkscape:window-maximized="1"
     fit-margin-left="2"
     fit-margin-top="2"
     fit-margin-right="2"
     fit-margin-bottom="2"
     inkscape:pagecheckerboard="0" />
  <metadata
     id="metadata2013">
    <rdf:RDF>
      <cc:Work
         rdf:about="">
        <dc:format>image/svg+xml</dc:format>
        <dc:type
           rdf:resource="http://purl.org/dc/dcmitype/StillImage" />
      </cc:Work>
    </rdf:RDF>
  </metadata>
  <g
     inkscape:label="Layer 1"
     inkscape:groupmode="layer"
     id="layer1"
     transform="translate(-35.948685,-52.272392)">
    <g
       id="g867"
       transform="matrix(0.35277777,0,0,0.35277777,-95.52778,16.265339)">
      <path
         d="m 467,144.188 c 0.066,10.531 -8.793,19.125 -19.797,19.203 -11.004,0.074 -19.992,-8.399 -20.078,-18.934 -0.09,-10.531 8.75,-19.141 19.754,-19.238 11.004,-0.098 20.008,8.359 20.121,18.89"
         style="fill:#ffffff;fill-opacity:1;fill-rule:evenodd;stroke:#000000;stroke-width:1.04571;stroke-linecap:butt;stroke-linejoin:miter;stroke-miterlimit:4;stroke-dasharray:none;stroke-opacity:1"
         id="path869" />
    </g>
    <g
       id="g867-7-5"
       transform="matrix(0.35277777,0,0,0.35277777,-58.059603,16.327916)">
      <path
         d="m 503.47174,145.27578 c 0.066,10.531 -8.793,19.125 -19.797,19.203 -11.004,0.074 -19.992,-8.399 -20.078,-18.934 -0.09,-10.531 8.75,-19.141 19.754,-19.238 11.004,-0.098 20.008,8.359 20.121,18.89"
         style="fill:#ffffff;fill-opacity:1;fill-rule:evenodd;stroke:#000000;stroke-width:1.04571;stroke-linecap:butt;stroke-linejoin:miter;stroke-miterlimit:4;stroke-dasharray:none;stroke-opacity:1"
         id="path869-2-2-7" />
    </g>
    <text
       xml:space="preserve"
       style="font-style:normal;font-weight:normal;font-size:10.5833px;line-height:1.25;font-family:sans-serif;fill:#000000;fill-opacity:1;stroke:none;stroke-width:0.264583"
       x="58.493355"
       y="71.259438"
       id="text2214"><tspan
         sodipodi:role="line"
         id="tspan2212"
         x="58.493355"
         y="71.259438"
         style="stroke-width:0.264583">A</tspan></text>
    <text
       xml:space="preserve"
       style="font-style:normal;font-weight:normal;font-size:10.5833px;line-height:1.25;font-family:sans-serif;fill:#000000;fill-opacity:1;stroke:none;stroke-width:0.264583"
       x="108.91233"
       y="71.494598"
       id="text3266"><tspan
         sodipodi:role="line"
         id="tspan3264"
         x="108.91233"
         y="71.494598"
         style="stroke-width:0.264583">B</tspan></text>
    <path
       style="fill:none;stroke:#000000;stroke-width:0.264583px;stroke-linecap:butt;stroke-linejoin:miter;stroke-opacity:1;marker-end:url(#marker3618)"
       d="m 69.219439,62.341288 35.951121,0.248129"
       id="path3608" />
    <path
       style="fill:none;stroke:#000000;stroke-width:0.264583px;stroke-linecap:butt;stroke-linejoin:miter;stroke-opacity:1;marker-end:url(#marker3618-2)"
       d="M 105.16758,70.64842 69.216636,70.896549"
       id="path3608-2" />
    <g
       id="g1031-5-5-0-8"
       transform="matrix(0.35277777,0,0,0.35277777,-159.66752,-78.472239)"
       style="fill:none">
      <path
         d="m 788.613,413.824 c 0.059,8.949 -7.527,16.254 -16.945,16.317 -9.422,0.062 -17.113,-7.137 -17.191,-16.086 -0.075,-8.95 7.492,-16.266 16.914,-16.348 9.418,-0.082 17.129,7.102 17.222,16.051"
         style="fill:none;fill-opacity:1;fill-rule:evenodd;stroke:#000000;stroke-width:0.89185;stroke-linecap:butt;stroke-linejoin:miter;stroke-miterlimit:4;stroke-dasharray:none;stroke-opacity:1"
         id="path1033-5-4-9-5" />
    </g>
    <text
       xml:space="preserve"
       style="font-style:normal;font-weight:normal;font-size:8.11722px;line-height:1.25;font-family:sans-serif;fill:#000000;fill-opacity:1;stroke:none;stroke-width:0.202931"
       x="86.810783"
       y="57.723801"
       id="text3910"
       transform="scale(0.95448808,1.047682)"><tspan
         sodipodi:role="line"
         id="tspan3908"
         x="86.810783"
         y="57.723801"
         style="stroke-width:0.202931">1</tspan></text>
    <text
       xml:space="preserve"
       style="font-style:normal;font-weight:normal;font-size:8.11722px;line-height:1.25;font-family:sans-serif;fill:#000000;fill-opacity:1;stroke:none;stroke-width:0.202931"
       x="87.946419"
       y="78.143204"
       id="text3910-4"
       transform="scale(0.95448809,1.047682)"><tspan
         sodipodi:role="line"
         id="tspan3908-6"
         x="87.946419"
         y="78.143204"
         style="stroke-width:0.202931">1</tspan></text>
    <path
       style="fill:none;stroke:#000000;stroke-width:0.264583px;stroke-linecap:butt;stroke-linejoin:miter;stroke-opacity:1;marker-end:url(#marker4760)"
       d="m 37.950155,66.483102 17.00893,0.188988"
       id="path2381" />
    <path
       style="fill:none;stroke:#000000;stroke-width:0.264583px;stroke-linecap:butt;stroke-linejoin:miter;stroke-opacity:1;marker-end:url(#marker4760)"
       d="M 58.171883,72.908697 52.124262,90.48459 H 70.645095 L 65.920394,73.286673"
       id="path2383" />
    <path
       style="fill:none;stroke:#000000;stroke-width:0.264583px;stroke-linecap:butt;stroke-linejoin:miter;stroke-opacity:1;marker-end:url(#marker4760-8)"
       d="m 108.67541,73.411482 -6.04762,17.575893 h 18.52083 l -4.7247,-17.197917"
       id="path2383-4" />
    <text
       xml:space="preserve"
       style="font-style:normal;font-weight:normal;font-size:10.5833px;line-height:1.25;font-family:sans-serif;fill:#000000;fill-opacity:1;stroke:none;stroke-width:0.264583"
       x="58.663254"
       y="100.16078"
       id="text2475"><tspan
         sodipodi:role="line"
         id="tspan2473"
         style="stroke-width:0.264583"
         x="58.663254"
         y="100.16078">0</tspan></text>
    <text
       xml:space="preserve"
       style="font-style:normal;font-weight:normal;font-size:10.5833px;line-height:1.25;font-family:sans-serif;fill:#000000;fill-opacity:1;stroke:none;stroke-width:0.264583"
       x="109.34454"
       y="99.998947"
       id="text2475-7"><tspan
         sodipodi:role="line"
         id="tspan2473-0"
         style="stroke-width:0.264583"
         x="109.34454"
         y="99.998947">0</tspan></text>
  </g>
</svg>
